{
  "name": "example42-puppi",
<<<<<<< HEAD
  "version": "2.1.10",
  "author": "lab42",
  "summary": "Installs and configures Puppi",
  "license": "Apache",
  "source": "git://github.com/example42/puppi",
  "project_page": "http://www.example42.com",
  "issues_url": "https://github.com/example42/puppi/issues",
  "description": "This module provides the Puppi libraries required by Example42 modules and, if explicitely included, the puppi command, its working environment, the defines and procedures to deploy applications",
  "dependencies": [
  
  ]
}
=======
  "version": "2.1.7",
  "source": "git://github.com/example42/puppi",
  "author": "lab42",
  "license": "Apache",
  "summary": "Installs and configures Puppi",
  "description": "This module provides the Puppi libraries required by Example42 modules and, if explicitely included, the puppi command, its working environment, the defines and procedures to deploy applications",
  "project_page": "http://www.example42.com",
  "dependencies": [

  ],
  "types": [

  ],
  "checksums": {
    "LICENSE": "a300b604c66de62cf6e923cca89c9d83",
    "Modulefile": "ff6f1455c4544414ddb250529123839f",
    "README.md": "841eaaae1b8eb0fd3bbe06917ddd31de",
    "README_check.md": "70d0a35d81249b140da94b1d9605a944",
    "README_deploy.md": "ebcd455453309277bcc278773336a7c9",
    "README_info.md": "1166c439d71f86e92f21a0879a492e15",
    "README_log.md": "7423f9bc977faee3cf5e01de9970995b",
    "Rakefile": "f6c685620eb850c579e290caeb550255",
    "composer.json": "7ff570e65ab8ab39d8f5598fe6488812",
    "files/info/readme/readme": "06bf19257e085da580d16ccdd2eebcbe",
    "files/info/readme/readme-default": "e616e48f90bf4b3fc3310f0152b7d5f8",
    "files/mailpuppicheck": "84695eb34ff03140deb6cb852f8c4748",
    "files/mcollective/mc-puppi": "9a2b7f95beafd634da2c4676fbaf405a",
    "files/mcollective/puppi.ddl": "6c1c486c599d44e2a23ae3cb81340389",
    "files/mcollective/puppi.rb": "ef6a3f59b86a3e87c2ae680b67d028bb",
    "files/mcollective/puppicheck": "7ed29b684b0304888594d536505ecf4f",
    "files/mcollective/puppideploy": "c56d5b12f370edf69f2f6557987cc0cc",
    "files/scripts/archive.sh": "ca8db4924a4a0837bb65c163afd37974",
    "files/scripts/check_project.sh": "27b135bcb519fac089ca99c0c6d2d2db",
    "files/scripts/checkwardir.sh": "dc75eb521c56b3c8310b16d3446e004e",
    "files/scripts/clean_filelist.sh": "d6dcfead938cc02daa696fa11ca6837d",
    "files/scripts/database.sh": "adaa39d289ed0d5624d58f0452509df6",
    "files/scripts/delete.sh": "bae2b996773ffc73635b990e33c05417",
    "files/scripts/deploy.sh": "b4bdcc74f92e6038ff25b89f109ed8c0",
    "files/scripts/deploy_files.sh": "147bf6b2d474056e8b75ada19de1fe81",
    "files/scripts/execute.sh": "5cbec7f5a82a877c0d156a6c0182df9e",
    "files/scripts/firewall.sh": "4d1cce1a3e5f12b40b442374868090ea",
    "files/scripts/functions": "27ca12a2ce15eceba874ae7628484949",
    "files/scripts/get_file.sh": "2e0015ace17adf33fa6f943bac005d1d",
    "files/scripts/get_filesfromlist.sh": "055bd95fa3a9882fbd3032e074f86f42",
    "files/scripts/get_maven_files.sh": "26f62cd4c6ad2942ab9bd3c9feba5609",
    "files/scripts/get_metadata.sh": "f67a2bdbf5113b15f15c3361988dd8c7",
    "files/scripts/git.sh": "9276bb790bf1e35266b20e30a6418ea9",
    "files/scripts/header": "f1ab14362a6f161ea2688def9b6a46ee",
    "files/scripts/predeploy.sh": "04104f7d21719568a9b356b980e024ed",
    "files/scripts/predeploy_tar.sh": "42a27d4defbc8bb2e8625a66c604cb76",
    "files/scripts/report_mail.sh": "5d5a3809f125b6db0a9382fb08e39ae5",
    "files/scripts/report_mongo.sh": "da2885f654b751b282fec08f4507d26e",
    "files/scripts/service.sh": "b4311afb8700afee1d893d5c6fcb6867",
    "files/scripts/svn.sh": "962a730fb7fa8b335aa932ace975aba2",
    "files/scripts/wait.sh": "5862b4df7916deb044444260cf5ac19b",
    "files/scripts/yant.sh": "b715c2ea21000f0d73e89f0d70e90e76",
    "files/scripts/yum.sh": "64ed8c7d79d89376ea86cf06aa4cb6eb",
    "lib/facter/last_run.rb": "75c871bd5262d1830c6a64d0ba3d8153",
    "lib/facter/puppi_projects.rb": "52c607131dc7a65db70d52f60e19bd09",
    "lib/puppet/parser/functions/any2bool.rb": "9a33c68686b26701e2289f553bed78e5",
    "lib/puppet/parser/functions/bool2ensure.rb": "7ed40cbdcb65556f5c9295a4088422a8",
    "lib/puppet/parser/functions/get_class_args.rb": "3a830d0d3af0f7c30002fa0213ccf555",
    "lib/puppet/parser/functions/get_magicvar.rb": "24c1abf9c43e7cf7290efeda7d5dd403",
    "lib/puppet/parser/functions/get_module_path.rb": "d4bf50da25c0b98d26b75354fa1bcc45",
    "lib/puppet/parser/functions/is_array.rb": "11696f865c1e4ada60769b033bdb88c8",
    "lib/puppet/parser/functions/nslookup.rb": "976cfe36eec535d97a17139c7408f0bd",
    "lib/puppet/parser/functions/options_lookup.rb": "5b5f8291e4b20c2aa31488b0ffe680b2",
    "lib/puppet/parser/functions/params_lookup.rb": "926e9ce38835bb63a9307b48d03d1495",
    "lib/puppet/parser/functions/url_parse.rb": "71d6f11070d1dc00f3dcad71a23f570a",
    "manifests/check.pp": "6e7cee7085a4e96a8e3a35fa0363bf9a",
    "manifests/configure.pp": "a14babd82aa428e0c5dc2b953797411f",
    "manifests/dependencies.pp": "91b2f9861af686f2860dc50e5b808c00",
    "manifests/deploy.pp": "1026044e262d37d195b085da68f4f28d",
    "manifests/extras.pp": "61dbacd5d1b5ce76f0f06f7298fa2fcc",
    "manifests/helper.pp": "79e26cc44408258cec33af1dad16d626",
    "manifests/helpers.pp": "87725d1e0325807b457d2eb818bf9f9f",
    "manifests/info/instance.pp": "6aba3dd55088f807ac29c7a25d5aa36f",
    "manifests/info/module.pp": "0ef6b568271ed5ed7abea8e818326e55",
    "manifests/info/readme.pp": "429cdfb835d74d6281cfa05da664aebd",
    "manifests/info.pp": "485dbbd21c0c7f170db82389007dc8bd",
    "manifests/init.pp": "277a01514ae936729280b04cfa00e490",
    "manifests/initialize.pp": "23b915dca649b37536bbdd67b7f7a71b",
    "manifests/install_packages.pp": "3bd7b1aadcd5b39f3a4c4da273e1bc4b",
    "manifests/log.pp": "8cf0a7411cee99d597b61087deaca99c",
    "manifests/mcollective/client.pp": "1636138a9fe14bb39e8208ce50934d17",
    "manifests/mcollective/server.pp": "b3720c6a73a867ca89f586593fd68201",
    "manifests/netinstall.pp": "3b367da40b530aa213da596d7cc9df02",
    "manifests/one.pp": "49cad03455a2518a2c1f322acd131c8f",
    "manifests/params.pp": "80b072f18f54fafbf07ea39b06869421",
    "manifests/project/README": "fdce58e91a1e10b3550f74ccbdbed6db",
    "manifests/project/archive.pp": "d084317057d8c4c5957ba39795909729",
    "manifests/project/builder.pp": "a8c8ccbf8f5af6072f29b3d7c5006af0",
    "manifests/project/dir.pp": "f255690d962445227ede91206bccb32b",
    "manifests/project/files.pp": "4b57a2bf78a7849ba910761f9132ab23",
    "manifests/project/git.pp": "35556cc52c9c24d95989190b2f6b623e",
    "manifests/project/maven.pp": "73429125f5ab07a9ae6e85f7e5032f03",
    "manifests/project/mysql.pp": "9756330d69d02272f04441292c6a5d36",
    "manifests/project/service.pp": "a9da84e72e0b3b135cd1f5b869bee1d5",
    "manifests/project/svn.pp": "691031e70b3a2a6414488e855d11118c",
    "manifests/project/tar.pp": "212045756022bf0c788611a765acfb07",
    "manifests/project/war.pp": "587796927ade79f63dde9495f99977a5",
    "manifests/project/y4maven.pp": "2b833923fd7be1d1022c55d3b98638be",
    "manifests/project/yum.pp": "7be17b59b039d97b9525a8cb50734768",
    "manifests/project.pp": "16bc44ff117859cf56b0cbbd1e64f722",
    "manifests/report.pp": "a612afd476da3810adbe62d357a1aa3b",
    "manifests/rollback.pp": "4a120841f544ebf490edc7d7952dcb0e",
    "manifests/run.pp": "c3c582c1f65c055b42da62dbb6fa3b1f",
    "manifests/runscript.pp": "05c536e2467d46d2e9b27cc3281662ee",
    "manifests/skel.pp": "8554eb98ec88920cbda289cfecd2d17b",
    "manifests/todo.pp": "d15e28813a53db8f1a71f7af89ae36d8",
    "manifests/two.pp": "09eb667da8dae6a01375eb87cad056ef",
    "manifests/ze.pp": "48636f3ce7bde860ab8767ac234b6bb7",
    "spec/classes/puppi_spec.rb": "cee8cf5b5c215fb5332570daec9dd8eb",
    "spec/defines/puppi_check_spec.rb": "ab5ec71f8d9b31ba6221f28a2c663c57",
    "spec/defines/puppi_deploy_spec.rb": "c5ced8a1a24d8ad828bcef911f2c01af",
    "spec/defines/puppi_helper_spec.rb": "62c110560da853ddd933af253d7b8590",
    "spec/defines/puppi_info_spec.rb": "e8cd4f1dd7f7b57fcd68cc751e5180a6",
    "spec/defines/puppi_initialize_spec.rb": "3349c9bb1addfcb2a98626247af2e57c",
    "spec/defines/puppi_log_spec.rb": "08617c3632ede09d78032b0382f5d782",
    "spec/defines/puppi_project_spec.rb": "793e2f06b7358db2c17c40d2c9c80e47",
    "spec/defines/puppi_report_spec.rb": "793e2f06b7358db2c17c40d2c9c80e47",
    "spec/defines/puppi_rollback_spec.rb": "42e19b4b726967bd652a8130999bedb8",
    "spec/defines/puppi_run_spec.rb": "388b0fd66b8c5a9b097e05160f777c04",
    "spec/defines/puppi_todo_spec.rb": "7582ba7af6fc2ec52c6cccdd0080ce6c",
    "spec/defines/puppi_ze_spec.rb": "d6c2723cf8a2cb8cab6668144eef7404",
    "spec/functions/any2bool_spec.rb": "6cd6e460c38949804bd69705e436308e",
    "spec/functions/bool2ensure_spec.rb": "6cc4be146c1e99662b6c0705ddfb67ec",
    "spec/functions/url_parse_spec.rb": "81085d9352473e1e778a93eae9b8ad8c",
    "spec/spec_helper.rb": "cf39b83c5f7bc1bdae838a28ba4e60ec",
    "templates/helpers/standard.yml.erb": "548abd81aee56803c73ac41c60f97289",
    "templates/info/instance.erb": "19811cc8627f126fc023aee28fb2b686",
    "templates/info/module.erb": "6758701c75644dee8c18cc4ec4ec9585",
    "templates/info/puppet.erb": "33beab27bb7b1d3421b8f3beb9fc1c08",
    "templates/info/readme.erb": "605015edea7317a1ba5b6ff54bf3eb6c",
    "templates/info.erb": "b70d4c4e728ac7a293b1f4c986917f92",
    "templates/install_packages.erb": "76187b63993a22d0c4edd62282c56dbb",
    "templates/log.erb": "3a2054a7e1b708cdfdbceb1c1d40b748",
    "templates/project/config.erb": "a19ac67182d1f7e9252e3a024ca3f20b",
    "templates/puppi.conf.erb": "c43466feb6d69c1adaafd7c6b595c4e9",
    "templates/puppi.erb": "379dd5d25e63d6e0f62035b9406b249a",
    "templates/puppi_clean.erb": "a45148cbeda335c150fbd3714ad33f6c",
    "templates/todo.erb": "745d64345b8d7614f251d2f65d883335"
  }
}
>>>>>>> dbd03dc818434c4dc123b989d62fa9a1d1669303
